{
  "builders": [
    {
      "type": "googlecompute",
      "project_id": "reddit-app-308420",
      "image_name": "reddit-base-{{timestamp}}",
      "image_family": "reddit-base",
      "source_image_family": "ubuntu-1604-lts",
      "zone": "europe-west1-b",
      "ssh_username": "appuser",
      "machine_type": "f1-micro"
    }
  ],
  "provisioners": [
    {
      "type": "shell",
      "script": "../bash_scripts/install_ruby.sh",
      "execute_command": "sudo {{.Path}}"
    },
    {
      "type": "shell",
      "script": "../bash_scripts/install_mongodb.sh",
      "execute_command": "sudo {{.Path}}"
    }
  ]
}
